05:22:40 PM.148: CPU Name: Intel(R) Core(TM) i7-6560U CPU @ 2.20GHz
05:22:40 PM.148: CPU Speed: 700.000MHz
05:22:40 PM.149: Physical Cores: 2, Logical Cores: 4
05:22:40 PM.149: Physical Memory: 15886MB Total, 13491MB Free
05:22:40 PM.149: Kernel Version: Linux 4.16.12-1-ARCH
05:22:40 PM.149: Distribution: "Arch Linux" Unknown
05:22:40 PM.151: Portable mode: false
05:22:40 PM.186: OBS 21.1.1-2 (linux)
05:22:40 PM.186: ---------------------------------
05:22:40 PM.186: ---------------------------------
05:22:40 PM.186: audio settings reset:
05:22:40 PM.186: 	samples per sec: 44100
05:22:40 PM.186: 	speakers:        2
05:22:40 PM.195: ---------------------------------
05:22:40 PM.195: Initializing OpenGL...
05:22:40 PM.216: Loading up OpenGL on adapter Intel Open Source Technology Center Mesa DRI Intel(R) Iris Graphics 540 (Skylake GT3e) 
05:22:40 PM.216: OpenGL loaded successfully, version 4.5 (Core Profile) Mesa 18.0.4, shading language 4.50
05:22:40 PM.266: ---------------------------------
05:22:40 PM.266: video settings reset:
05:22:40 PM.266: 	base resolution:   1920x1080
05:22:40 PM.266: 	output resolution: 1280x720
05:22:40 PM.266: 	downscale filter:  Bicubic
05:22:40 PM.266: 	fps:               30/1
05:22:40 PM.266: 	format:            NV12
05:22:40 PM.266: 	YUV mode:          601/Partial
05:22:40 PM.278: Audio monitoring device:
05:22:40 PM.278: 	name: Default
05:22:40 PM.278: 	id: default
05:22:40 PM.278: ---------------------------------
05:22:40 PM.278: os_dlopen(/usr//lib/obs-plugins/frontend-tools.so->/usr//lib/obs-plugins/frontend-tools.so): libluajit-5.1.so.2: cannot open shared object file: No such file or directory
05:22:40 PM.278: 
05:22:40 PM.278: Module '/usr//lib/obs-plugins/frontend-tools.so' not loaded
05:22:40 PM.282: No blackmagic support
05:22:40 PM.325: os_dlopen(libnvidia-encode.so.1->libnvidia-encode.so.1): libnvidia-encode.so.1: cannot open shared object file: No such file or directory
05:22:40 PM.325: 
05:22:40 PM.326: os_dlopen(/usr//lib/obs-plugins/obs-libfdk.so->/usr//lib/obs-plugins/obs-libfdk.so): libfdk-aac.so.1: cannot open shared object file: No such file or directory
05:22:40 PM.326: 
05:22:40 PM.326: Module '/usr//lib/obs-plugins/obs-libfdk.so' not loaded
05:22:40 PM.335: VLC found, VLC video source enabled
05:22:40 PM.336: ---------------------------------
05:22:40 PM.336:   Loaded Modules:
05:22:40 PM.336:     vlc-video.so
05:22:40 PM.336:     text-freetype2.so
05:22:40 PM.336:     rtmp-services.so
05:22:40 PM.336:     obs-x264.so
05:22:40 PM.336:     obs-transitions.so
05:22:40 PM.336:     obs-outputs.so
05:22:40 PM.336:     obs-filters.so
05:22:40 PM.336:     obs-ffmpeg.so
05:22:40 PM.336:     linux-v4l2.so
05:22:40 PM.336:     linux-pulseaudio.so
05:22:40 PM.336:     linux-jack.so
05:22:40 PM.336:     linux-decklink.so
05:22:40 PM.336:     linux-capture.so
05:22:40 PM.336:     linux-alsa.so
05:22:40 PM.336:     image-source.so
05:22:40 PM.336: ---------------------------------
05:22:40 PM.336: ==== Startup complete ===============================================
05:22:40 PM.336: Service '' not found
05:22:40 PM.344: No scene file found, creating default scene
05:22:40 PM.344: All scene data cleared
05:22:40 PM.344: ------------------------------------------------
05:22:40 PM.349: pulse-input: Server name: 'pulseaudio 11.1'
05:22:40 PM.350: pulse-input: Audio format: s16le, 44100 Hz, 2 channels
05:22:40 PM.350: pulse-input: Started recording from 'alsa_output.pci-0000_00_1f.3.analog-stereo.monitor'
05:22:40 PM.351: pulse-input: Server name: 'pulseaudio 11.1'
05:22:40 PM.351: pulse-input: Audio format: s16le, 44100 Hz, 2 channels
05:22:40 PM.351: pulse-input: Started recording from 'alsa_input.pci-0000_00_1f.3.analog-stereo'
05:22:40 PM.351: Switched to scene 'Scene'
05:22:40 PM.351: Failed to glob scene collections
05:22:40 PM.859: adding 23 milliseconds of audio buffering, total audio buffering is now 23 milliseconds
05:22:41 PM.070: adding 23 milliseconds of audio buffering, total audio buffering is now 46 milliseconds
05:22:41 PM.340: [rtmp-services plugin] Successfully updated file 'services.json' (version 82)
05:22:41 PM.340: [rtmp-services plugin] Successfully updated package (version 82)
05:23:19 PM.912: 
05:23:19 PM.912: ==== Auto-config wizard testing commencing ======

05:23:19 PM.947: ---------------------------------
05:23:19 PM.947: video settings reset:
05:23:19 PM.947: 	base resolution:   1920x1080
05:23:19 PM.947: 	output resolution: 852x480
05:23:19 PM.947: 	downscale filter:  Bicubic
05:23:19 PM.947: 	fps:               60/1
05:23:19 PM.947: 	format:            NV12
05:23:19 PM.947: 	YUV mode:          601/Partial
05:23:19 PM.969: ---------------------------------
05:23:19 PM.969: [x264 encoder: 'test_x264'] preset: veryfast
05:23:19 PM.969: [x264 encoder: 'test_x264'] profile: main
05:23:19 PM.972: [x264 encoder: 'test_x264'] settings:
05:23:19 PM.972: 	rate_control: CBR
05:23:19 PM.972: 	bitrate:      3500
05:23:19 PM.972: 	buffer size:  3500
05:23:19 PM.972: 	crf:          0
05:23:19 PM.972: 	fps_num:      60
05:23:19 PM.972: 	fps_den:      1
05:23:19 PM.972: 	width:        852
05:23:19 PM.972: 	height:       480
05:23:19 PM.972: 	keyint:       120
05:23:19 PM.972: 
05:23:19 PM.984: ---------------------------------
05:23:19 PM.993: [FFmpeg aac encoder: 'test_aac'] bitrate: 32, channels: 2, channel_layout: 3
05:23:19 PM.993: 
05:23:23 PM.515: Output 'null': stopping
05:23:23 PM.515: Output 'null': Total frames output: 189
05:23:23 PM.515: Output 'null': Total drawn frames: 210 (211 attempted)
05:23:23 PM.515: Output 'null': Number of lagged frames due to rendering lag/stalls: 1 (0.5%)
05:23:23 PM.569: ---------------------------------
05:23:23 PM.570: video settings reset:
05:23:23 PM.570: 	base resolution:   1920x1080
05:23:23 PM.570: 	output resolution: 1280x720
05:23:23 PM.570: 	downscale filter:  Bicubic
05:23:23 PM.570: 	fps:               30/1
05:23:23 PM.570: 	format:            NV12
05:23:23 PM.570: 	YUV mode:          601/Partial
05:23:31 PM.144: ---------------------------------
05:23:31 PM.144: video settings reset:
05:23:31 PM.144: 	base resolution:   1920x1080
05:23:31 PM.144: 	output resolution: 852x480
05:23:31 PM.144: 	downscale filter:  Bicubic
05:23:31 PM.144: 	fps:               60/1
05:23:31 PM.144: 	format:            NV12
05:23:31 PM.144: 	YUV mode:          601/Partial
05:23:31 PM.171: ---------------------------------
05:23:31 PM.171: [x264 encoder: 'test_x264'] preset: veryfast
05:23:31 PM.171: [x264 encoder: 'test_x264'] profile: main
05:23:31 PM.171: [x264 encoder: 'test_x264'] settings:
05:23:31 PM.171: 	rate_control: CBR
05:23:31 PM.171: 	bitrate:      3500
05:23:31 PM.171: 	buffer size:  3500
05:23:31 PM.171: 	crf:          0
05:23:31 PM.171: 	fps_num:      60
05:23:31 PM.171: 	fps_den:      1
05:23:31 PM.171: 	width:        852
05:23:31 PM.171: 	height:       480
05:23:31 PM.171: 	keyint:       120
05:23:31 PM.171: 
05:23:31 PM.192: ---------------------------------
05:23:31 PM.195: [FFmpeg aac encoder: 'test_aac'] bitrate: 32, channels: 2, channel_layout: 3
05:23:31 PM.195: 
05:23:32 PM.837: Output 'null': stopping
05:23:32 PM.837: Output 'null': Total frames output: 76
05:23:32 PM.837: Output 'null': Total drawn frames: 98
05:23:32 PM.855: ---------------------------------
05:23:32 PM.855: video settings reset:
05:23:32 PM.855: 	base resolution:   1920x1080
05:23:32 PM.855: 	output resolution: 1280x720
05:23:32 PM.855: 	downscale filter:  Bicubic
05:23:32 PM.855: 	fps:               30/1
05:23:32 PM.855: 	format:            NV12
05:23:32 PM.855: 	YUV mode:          601/Partial
05:23:36 PM.495: ---------------------------------
05:23:36 PM.495: video settings reset:
05:23:36 PM.495: 	base resolution:   1920x1080
05:23:36 PM.495: 	output resolution: 852x480
05:23:36 PM.495: 	downscale filter:  Bicubic
05:23:36 PM.495: 	fps:               60/1
05:23:36 PM.495: 	format:            NV12
05:23:36 PM.495: 	YUV mode:          601/Partial
05:23:36 PM.529: ---------------------------------
05:23:36 PM.529: [x264 encoder: 'test_x264'] preset: veryfast
05:23:36 PM.529: [x264 encoder: 'test_x264'] profile: main
05:23:36 PM.529: [x264 encoder: 'test_x264'] settings:
05:23:36 PM.529: 	rate_control: CBR
05:23:36 PM.529: 	bitrate:      3500
05:23:36 PM.529: 	buffer size:  3500
05:23:36 PM.529: 	crf:          0
05:23:36 PM.529: 	fps_num:      60
05:23:36 PM.529: 	fps_den:      1
05:23:36 PM.529: 	width:        852
05:23:36 PM.529: 	height:       480
05:23:36 PM.529: 	keyint:       120
05:23:36 PM.529: 
05:23:36 PM.544: ---------------------------------
05:23:36 PM.547: [FFmpeg aac encoder: 'test_aac'] bitrate: 32, channels: 2, channel_layout: 3
05:23:36 PM.547: 
05:23:41 PM.554: Output 'null': stopping
05:23:41 PM.554: Output 'null': Total frames output: 274
05:23:41 PM.554: Output 'null': Total drawn frames: 300
05:23:41 PM.555: Video stopped, number of skipped frames due to encoding lag: 7/298 (2.3%)
05:23:41 PM.579: ---------------------------------
05:23:41 PM.579: video settings reset:
05:23:41 PM.579: 	base resolution:   1920x1080
05:23:41 PM.579: 	output resolution: 1280x720
05:23:41 PM.579: 	downscale filter:  Bicubic
05:23:41 PM.579: 	fps:               30/1
05:23:41 PM.579: 	format:            NV12
05:23:41 PM.579: 	YUV mode:          601/Partial
05:23:56 PM.886: ---------------------------------
05:23:56 PM.886: video settings reset:
05:23:56 PM.886: 	base resolution:   1920x1080
05:23:56 PM.886: 	output resolution: 852x480
05:23:56 PM.886: 	downscale filter:  Bicubic
05:23:56 PM.886: 	fps:               60/1
05:23:56 PM.886: 	format:            NV12
05:23:56 PM.886: 	YUV mode:          601/Partial
05:23:56 PM.929: 
05:23:56 PM.929: ==== Auto-config wizard testing stopping ========

05:24:23 PM.313: Source 'Scene' renamed to 'Desktop'
05:24:36 PM.334: xshm-input: Geometry 3200x1800 @ 0,0
05:24:36 PM.403: User added source 'Screen Capture (XSHM)' (xshm_input) to scene 'Desktop'
05:24:53 PM.767: xshm-input: Geometry 3200x1800 @ 0,0
05:24:54 PM.507: xshm-input: Geometry 3200x1800 @ 0,0
05:25:25 PM.810: v4l2-input: Start capture from 
05:25:25 PM.810: v4l2-input: Unable to open device
05:25:25 PM.810: v4l2-input: Initialization failed
05:25:25 PM.814: User added source 'Webcam1' (v4l2_input) to scene 'Desktop'
05:25:25 PM.831: v4l2-input: /dev/video1 seems to not support video capture
05:25:25 PM.842: v4l2-input: Found device 'Integrated_Webcam_HD: Integrate' at /dev/video0
05:25:25 PM.844: v4l2-input: Found input 'Camera 1' (Index 0)
05:25:25 PM.845: v4l2-input: Pixelformat: Motion-JPEG (unavailable)
05:25:25 PM.845: v4l2-input: Pixelformat: YUYV 4:2:2 (available)
05:25:25 PM.845: v4l2-input: Pixelformat: RGB3 (Emulated) (unavailable)
05:25:25 PM.845: v4l2-input: Pixelformat: BGR3 (Emulated) (unavailable)
05:25:25 PM.845: v4l2-input: Pixelformat: YU12 (Emulated) (available)
05:25:25 PM.845: v4l2-input: Pixelformat: YV12 (Emulated) (available)
05:25:25 PM.845: v4l2-input: Stepwise and Continuous framesizes are currently hardcoded
05:25:25 PM.848: v4l2-input: Stepwise and Continuous framerates are currently hardcoded
05:25:25 PM.852: v4l2-input: Pixelformat: Motion-JPEG (unavailable)
05:25:25 PM.852: v4l2-input: Pixelformat: YUYV 4:2:2 (available)
05:25:25 PM.852: v4l2-input: Pixelformat: RGB3 (Emulated) (unavailable)
05:25:25 PM.852: v4l2-input: Pixelformat: BGR3 (Emulated) (unavailable)
05:25:25 PM.852: v4l2-input: Pixelformat: YU12 (Emulated) (available)
05:25:25 PM.852: v4l2-input: Pixelformat: YV12 (Emulated) (available)
05:25:25 PM.853: v4l2-input: Start capture from /dev/video0
05:25:25 PM.854: v4l2-input: Stepwise and Continuous framesizes are currently hardcoded
05:25:25 PM.855: v4l2-input: Stepwise and Continuous framerates are currently hardcoded
05:25:25 PM.855: v4l2-input: Input: 0
05:25:25 PM.855: v4l2-input: Selected video format not supported
05:25:25 PM.855: v4l2-input: Initialization failed
05:25:25 PM.862: v4l2-input: Stepwise and Continuous framerates are currently hardcoded
05:25:25 PM.871: v4l2-input: Start capture from /dev/video0
05:25:25 PM.873: v4l2-input: Input: 0
05:25:25 PM.983: v4l2-input: Resolution: 640x480
05:25:25 PM.983: v4l2-input: Pixelformat: VYUY
05:25:25 PM.983: v4l2-input: Linesize: 1280 Bytes
05:25:25 PM.983: v4l2-input: Framerate: 30.00 fps
05:28:04 PM.672: Settings changed (general, stream 1)
05:28:04 PM.672: ------------------------------------------------
05:28:41 PM.863: Settings changed (outputs)
05:28:41 PM.863: ------------------------------------------------
05:29:05 PM.085: ---------------------------------
05:29:05 PM.086: video settings reset:
05:29:05 PM.086: 	base resolution:   1920x1080
05:29:05 PM.086: 	output resolution: 1920x1080
05:29:05 PM.086: 	downscale filter:  Bicubic
05:29:05 PM.086: 	fps:               60/1
05:29:05 PM.086: 	format:            NV12
05:29:05 PM.086: 	YUV mode:          601/Partial
05:29:05 PM.121: Settings changed (video)
05:29:05 PM.121: ------------------------------------------------
05:29:19 PM.193: ---------------------------------
05:29:19 PM.193: [x264 encoder: 'simple_h264_stream'] preset: veryfast
05:29:19 PM.193: [x264 encoder: 'simple_h264_stream'] settings:
05:29:19 PM.193: 	rate_control: CBR
05:29:19 PM.193: 	bitrate:      3500
05:29:19 PM.193: 	buffer size:  3500
05:29:19 PM.193: 	crf:          0
05:29:19 PM.193: 	fps_num:      60
05:29:19 PM.193: 	fps_den:      1
05:29:19 PM.193: 	width:        1920
05:29:19 PM.193: 	height:       1080
05:29:19 PM.193: 	keyint:       120
05:29:19 PM.193: 
05:29:19 PM.193: [x264 encoder: 'simple_h264_stream'] custom settings: scenecut=0
05:29:19 PM.200: ---------------------------------
05:29:19 PM.200: [FFmpeg aac encoder: 'simple_aac'] bitrate: 160, channels: 2, channel_layout: 3
05:29:19 PM.200: 
05:29:19 PM.222: ==== Recording Start ===============================================
05:29:19 PM.222: [ffmpeg muxer: 'simple_file_output'] Writing file '/home/z/Video/2018-05-29_17-29-19.mkv'...
05:30:55 PM.671: [ffmpeg muxer: 'simple_file_output'] Output of file '/home/z/Video/2018-05-29_17-29-19.mkv' stopped
05:30:55 PM.671: Output 'simple_file_output': stopping
05:30:55 PM.671: Output 'simple_file_output': Total frames output: 4362
05:30:55 PM.671: Output 'simple_file_output': Total drawn frames: 4785 (5788 attempted)
05:30:55 PM.671: Output 'simple_file_output': Number of lagged frames due to rendering lag/stalls: 1003 (17.3%)
05:30:55 PM.672: ==== Recording Stop ================================================
05:30:56 PM.190: Video stopped, number of skipped frames due to encoding lag: 4297/4406 (97.5%)
05:30:58 PM.323: ==== Shutting down ==================================================
05:30:58 PM.334: Switched to scene '(null)'
05:30:58 PM.384: v4l2-input: Stopped capture after 9642 frames
05:30:59 PM.201: pulse-input: Stopped recording from 'alsa_output.pci-0000_00_1f.3.analog-stereo.monitor'
05:30:59 PM.202: pulse-input: Got 105196 packets with 22092625 frames
05:30:59 PM.202: pulse-input: Stopped recording from 'alsa_input.pci-0000_00_1f.3.analog-stereo'
05:30:59 PM.202: pulse-input: Got 50663 packets with 21998880 frames
05:30:59 PM.203: All scene data cleared
05:30:59 PM.203: ------------------------------------------------
05:30:59 PM.262: Freeing OBS context data
05:30:59 PM.326: == Profiler Results =============================
05:30:59 PM.326: run_program_init: 79366.3 ms
05:30:59 PM.326:  ┣OBSApp::AppInit: 2.682 ms
05:30:59 PM.326:  ┃ ┗OBSApp::InitLocale: 0.787 ms
05:30:59 PM.326:  ┗OBSApp::OBSInit: 79348.2 ms
05:30:59 PM.326:    ┣obs_startup: 18.193 ms
05:30:59 PM.326:    ┗OBSBasic::OBSInit: 76749.7 ms
05:30:59 PM.326:      ┣OBSBasic::InitBasicConfig: 0.386 ms
05:30:59 PM.326:      ┣OBSBasic::ResetAudio: 0.366 ms
05:30:59 PM.326:      ┣OBSBasic::ResetVideo: min=51.914 ms, median=0 ms, max=90.704 ms, 99th percentile=90.704 ms, 2 calls per parent call
05:30:59 PM.326:      ┣OBSBasic::InitOBSCallbacks: 0.003 ms
05:30:59 PM.326:      ┣OBSBasic::InitHotkeys: 0.078 ms
05:30:59 PM.326:      ┣obs_load_all_modules: 57.876 ms
05:30:59 PM.326:      ┃ ┣obs_init_module(image-source.so): 0.002 ms
05:30:59 PM.326:      ┃ ┣obs_init_module(linux-alsa.so): 0.001 ms
05:30:59 PM.326:      ┃ ┣obs_init_module(linux-capture.so): 0.438 ms
05:30:59 PM.326:      ┃ ┣obs_init_module(linux-decklink.so): 0.061 ms
05:30:59 PM.326:      ┃ ┣obs_init_module(linux-jack.so): 0.001 ms
05:30:59 PM.327:      ┃ ┣obs_init_module(linux-pulseaudio.so): 0.002 ms
05:30:59 PM.327:      ┃ ┣obs_init_module(linux-v4l2.so): 0.001 ms
05:30:59 PM.327:      ┃ ┣obs_init_module(obs-ffmpeg.so): 9.454 ms
05:30:59 PM.327:      ┃ ┃ ┗nvenc_check: 9.446 ms
05:30:59 PM.327:      ┃ ┣obs_init_module(obs-filters.so): 0.008 ms
05:30:59 PM.327:      ┃ ┣obs_init_module(obs-outputs.so): 0.001 ms
05:30:59 PM.327:      ┃ ┣obs_init_module(obs-transitions.so): 0.005 ms
05:30:59 PM.327:      ┃ ┣obs_init_module(obs-x264.so): 0.001 ms
05:30:59 PM.327:      ┃ ┣obs_init_module(rtmp-services.so): 0.123 ms
05:30:59 PM.327:      ┃ ┣obs_init_module(text-freetype2.so): 0.028 ms
05:30:59 PM.327:      ┃ ┗obs_init_module(vlc-video.so): 4.976 ms
05:30:59 PM.327:      ┣OBSBasic::ResetOutputs: min=0.11 ms, median=0 ms, max=0.281 ms, 99th percentile=0.281 ms, 2 calls per parent call
05:30:59 PM.327:      ┣OBSBasic::CreateHotkeys: 0.027 ms
05:30:59 PM.327:      ┣OBSBasic::InitService: 1.373 ms
05:30:59 PM.327:      ┣OBSBasic::InitPrimitives: 6.214 ms
05:30:59 PM.327:      ┗OBSBasic::Load: 7.691 ms
05:30:59 PM.327: obs_hotkey_thread(25 ms): min=0.068 ms, median=0.954 ms, max=97.185 ms, 99th percentile=13.304 ms, 99.9094% below 25 ms
05:30:59 PM.327: audio_thread(Audio): min=0.01 ms, median=0.332 ms, max=50.736 ms, 99th percentile=6.528 ms
05:30:59 PM.327:  ┗receive_audio: min=0.004 ms, median=1.045 ms, max=50.497 ms, 99th percentile=11.174 ms, 0.222094 calls per parent call
05:30:59 PM.327:    ┣buffer_audio: min=0 ms, median=0.003 ms, max=8.594 ms, 99th percentile=0.024 ms
05:30:59 PM.327:    ┗do_encode: min=0.036 ms, median=1.033 ms, max=50.486 ms, 99th percentile=11.165 ms
05:30:59 PM.327:      ┣encode(test_aac): min=0.088 ms, median=0.159 ms, max=13.654 ms, 99th percentile=3.945 ms, 0.0325098 calls per parent call
05:30:59 PM.327:      ┣encode(test_aac): min=0.061 ms, median=0.166 ms, max=1.748 ms, 99th percentile=1.748 ms, 0.0151712 calls per parent call
05:30:59 PM.327:      ┣encode(test_aac): min=0.025 ms, median=0.161 ms, max=10.075 ms, 99th percentile=3.65 ms, 0.0465973 calls per parent call
05:30:59 PM.327:      ┗encode(simple_aac): min=0.044 ms, median=1.036 ms, max=50.433 ms, 99th percentile=11.279 ms, 0.905722 calls per parent call
05:30:59 PM.327: obs_graphics_thread(33.3333 ms): min=0.538 ms, median=2.752 ms, max=32.482 ms, 99th percentile=5.125 ms, 100% below 33.333 ms
05:30:59 PM.327:  ┣tick_sources: min=0 ms, median=0.014 ms, max=0.137 ms, 99th percentile=0.029 ms
05:30:59 PM.327:  ┣output_frame: min=0.457 ms, median=1.416 ms, max=32.471 ms, 99th percentile=2.542 ms
05:30:59 PM.327:  ┃ ┣gs_context(video->graphics): min=0.267 ms, median=0.894 ms, max=32.471 ms, 99th percentile=1.729 ms
05:30:59 PM.327:  ┃ ┃ ┣render_video: min=0.128 ms, median=0.532 ms, max=32.268 ms, 99th percentile=1.246 ms
05:30:59 PM.327:  ┃ ┃ ┃ ┣render_main_texture: min=0.03 ms, median=0.117 ms, max=0.608 ms, 99th percentile=0.278 ms
05:30:59 PM.327:  ┃ ┃ ┃ ┣render_output_texture: min=0.002 ms, median=0.22 ms, max=32.228 ms, 99th percentile=0.526 ms
05:30:59 PM.327:  ┃ ┃ ┃ ┣render_convert_texture: min=0.001 ms, median=0.115 ms, max=6.221 ms, 99th percentile=0.407 ms
05:30:59 PM.327:  ┃ ┃ ┃ ┗stage_output_texture: min=0 ms, median=0.06 ms, max=1.644 ms, 99th percentile=0.167 ms
05:30:59 PM.327:  ┃ ┃ ┣download_frame: min=0 ms, median=0.011 ms, max=0.439 ms, 99th percentile=0.023 ms
05:30:59 PM.327:  ┃ ┃ ┗gs_flush: min=0.039 ms, median=0.274 ms, max=0.576 ms, 99th percentile=0.512 ms
05:30:59 PM.327:  ┃ ┗output_video_data: min=0.149 ms, median=0.506 ms, max=2.793 ms, 99th percentile=1.21 ms
05:30:59 PM.327:  ┗render_displays: min=0.006 ms, median=1.255 ms, max=12.738 ms, 99th percentile=3.138 ms
05:30:59 PM.327: video_thread(video): min=0 ms, median=0.002 ms, max=0.258 ms, 99th percentile=0.004 ms
05:30:59 PM.327: obs_graphics_thread(16.6667 ms): min=0.513 ms, median=0.767 ms, max=27.697 ms, 99th percentile=24.511 ms, 97.2093% below 16.667 ms
05:30:59 PM.327:  ┣tick_sources: min=0.004 ms, median=0.005 ms, max=0.246 ms, 99th percentile=0.035 ms
05:30:59 PM.327:  ┣output_frame: min=0.28 ms, median=0.333 ms, max=23.557 ms, 99th percentile=20.695 ms
05:30:59 PM.327:  ┃ ┣gs_context(video->graphics): min=0.214 ms, median=0.251 ms, max=23.557 ms, 99th percentile=16.092 ms
05:30:59 PM.327:  ┃ ┃ ┣render_video: min=0.153 ms, median=0.186 ms, max=23.035 ms, 99th percentile=10.703 ms
05:30:59 PM.327:  ┃ ┃ ┃ ┣render_main_texture: min=0.085 ms, median=0.102 ms, max=20.734 ms, 99th percentile=3.682 ms
05:30:59 PM.327:  ┃ ┃ ┃ ┣render_output_texture: min=0.004 ms, median=0.034 ms, max=22.239 ms, 99th percentile=0.849 ms
05:30:59 PM.327:  ┃ ┃ ┃ ┣render_convert_texture: min=0.002 ms, median=0.027 ms, max=1.102 ms, 99th percentile=0.666 ms
05:30:59 PM.327:  ┃ ┃ ┃ ┗stage_output_texture: min=0 ms, median=0.016 ms, max=0.21 ms, 99th percentile=0.19 ms
05:30:59 PM.327:  ┃ ┃ ┣download_frame: min=0 ms, median=0.003 ms, max=13.259 ms, 99th percentile=8.366 ms
05:30:59 PM.327:  ┃ ┃ ┗gs_flush: min=0.031 ms, median=0.036 ms, max=1.444 ms, 99th percentile=0.611 ms
05:30:59 PM.327:  ┃ ┗output_video_data: min=0.064 ms, median=0.079 ms, max=4.594 ms, 99th percentile=4.309 ms
05:30:59 PM.327:  ┗render_displays: min=0.209 ms, median=0.424 ms, max=9.257 ms, 99th percentile=5.873 ms
05:30:59 PM.327: video_thread(video): min=0 ms, median=0.518 ms, max=38.438 ms, 99th percentile=19.495 ms
05:30:59 PM.327:  ┗receive_video: min=0.396 ms, median=0.518 ms, max=38.436 ms, 99th percentile=19.492 ms
05:30:59 PM.327:    ┗do_encode: min=0.395 ms, median=0.517 ms, max=38.434 ms, 99th percentile=19.491 ms
05:30:59 PM.327:      ┗encode(test_x264): min=0.387 ms, median=0.511 ms, max=38.432 ms, 99th percentile=19.483 ms
05:30:59 PM.328: obs_graphics_thread(33.3333 ms): min=0.417 ms, median=2.808 ms, max=13.405 ms, 99th percentile=8.871 ms, 100% below 33.333 ms
05:30:59 PM.328:  ┣tick_sources: min=0.004 ms, median=0.014 ms, max=0.118 ms, 99th percentile=0.029 ms
05:30:59 PM.328:  ┣output_frame: min=0.109 ms, median=1.473 ms, max=3.474 ms, 99th percentile=2.568 ms
05:30:59 PM.328:  ┃ ┣gs_context(video->graphics): min=0.109 ms, median=0.908 ms, max=2.018 ms, 99th percentile=1.681 ms
05:30:59 PM.328:  ┃ ┃ ┣render_video: min=0.063 ms, median=0.535 ms, max=1.324 ms, 99th percentile=1.233 ms
05:30:59 PM.328:  ┃ ┃ ┃ ┣render_main_texture: min=0.048 ms, median=0.12 ms, max=0.359 ms, 99th percentile=0.228 ms
05:30:59 PM.328:  ┃ ┃ ┃ ┣render_output_texture: min=0.002 ms, median=0.226 ms, max=0.782 ms, 99th percentile=0.512 ms
05:30:59 PM.328:  ┃ ┃ ┃ ┣render_convert_texture: min=0.001 ms, median=0.116 ms, max=0.462 ms, 99th percentile=0.339 ms
05:30:59 PM.328:  ┃ ┃ ┃ ┗stage_output_texture: min=0 ms, median=0.058 ms, max=0.35 ms, 99th percentile=0.188 ms
05:30:59 PM.328:  ┃ ┃ ┣download_frame: min=0 ms, median=0.012 ms, max=0.148 ms, 99th percentile=0.05 ms
05:30:59 PM.328:  ┃ ┃ ┗gs_flush: min=0.031 ms, median=0.285 ms, max=0.601 ms, 99th percentile=0.579 ms
05:30:59 PM.328:  ┃ ┗output_video_data: min=0.222 ms, median=0.546 ms, max=1.736 ms, 99th percentile=1.174 ms
05:30:59 PM.328:  ┗render_displays: min=0.272 ms, median=1.277 ms, max=12.032 ms, 99th percentile=6.283 ms
05:30:59 PM.328: video_thread(video): min=0.001 ms, median=0.002 ms, max=0.154 ms, 99th percentile=0.033 ms
05:30:59 PM.328: obs_graphics_thread(16.6667 ms): min=0.513 ms, median=0.759 ms, max=9.536 ms, 99th percentile=6.858 ms, 100% below 16.667 ms
05:30:59 PM.328:  ┣tick_sources: min=0.004 ms, median=0.005 ms, max=0.215 ms, 99th percentile=0.038 ms
05:30:59 PM.328:  ┣output_frame: min=0.274 ms, median=0.354 ms, max=4.427 ms, 99th percentile=4.135 ms
05:30:59 PM.328:  ┃ ┣gs_context(video->graphics): min=0.197 ms, median=0.261 ms, max=2.895 ms, 99th percentile=2.181 ms
05:30:59 PM.328:  ┃ ┃ ┣render_video: min=0.143 ms, median=0.188 ms, max=2.493 ms, 99th percentile=1.469 ms
05:30:59 PM.328:  ┃ ┃ ┃ ┣render_main_texture: min=0.077 ms, median=0.105 ms, max=0.731 ms, 99th percentile=0.704 ms
05:30:59 PM.328:  ┃ ┃ ┃ ┣render_output_texture: min=0.012 ms, median=0.036 ms, max=0.452 ms, 99th percentile=0.435 ms
05:30:59 PM.328:  ┃ ┃ ┃ ┣render_convert_texture: min=0.007 ms, median=0.029 ms, max=1.141 ms, 99th percentile=0.413 ms
05:30:59 PM.328:  ┃ ┃ ┃ ┗stage_output_texture: min=0 ms, median=0.016 ms, max=0.238 ms, 99th percentile=0.176 ms
05:30:59 PM.328:  ┃ ┃ ┣download_frame: min=0 ms, median=0.003 ms, max=0.085 ms, 99th percentile=0.06 ms
05:30:59 PM.328:  ┃ ┃ ┗gs_flush: min=0.032 ms, median=0.041 ms, max=0.445 ms, 99th percentile=0.396 ms
05:30:59 PM.328:  ┃ ┗output_video_data: min=0.063 ms, median=0.081 ms, max=2.674 ms, 99th percentile=2.674 ms
05:30:59 PM.328:  ┗render_displays: min=0.196 ms, median=0.426 ms, max=6.716 ms, 99th percentile=4.089 ms
05:30:59 PM.328: video_thread(video): min=0 ms, median=0.527 ms, max=49.932 ms, 99th percentile=49.932 ms
05:30:59 PM.328:  ┗receive_video: min=0.387 ms, median=0.537 ms, max=49.927 ms, 99th percentile=49.927 ms
05:30:59 PM.328:    ┗do_encode: min=0.387 ms, median=0.536 ms, max=49.926 ms, 99th percentile=49.926 ms
05:30:59 PM.328:      ┗encode(test_x264): min=0.381 ms, median=0.53 ms, max=49.923 ms, 99th percentile=49.923 ms
05:30:59 PM.328: obs_graphics_thread(33.3333 ms): min=0.473 ms, median=2.832 ms, max=8.252 ms, 99th percentile=6.306 ms, 100% below 33.333 ms
05:30:59 PM.328:  ┣tick_sources: min=0.01 ms, median=0.014 ms, max=0.04 ms, 99th percentile=0.027 ms
05:30:59 PM.328:  ┣output_frame: min=0.116 ms, median=1.408 ms, max=4.457 ms, 99th percentile=4.428 ms
05:30:59 PM.328:  ┃ ┣gs_context(video->graphics): min=0.116 ms, median=0.885 ms, max=1.747 ms, 99th percentile=1.734 ms
05:30:59 PM.328:  ┃ ┃ ┣render_video: min=0.067 ms, median=0.522 ms, max=1.344 ms, 99th percentile=1.015 ms
05:30:59 PM.328:  ┃ ┃ ┃ ┣render_main_texture: min=0.058 ms, median=0.119 ms, max=0.398 ms, 99th percentile=0.274 ms
05:30:59 PM.328:  ┃ ┃ ┃ ┣render_output_texture: min=0.002 ms, median=0.219 ms, max=0.662 ms, 99th percentile=0.611 ms
05:30:59 PM.328:  ┃ ┃ ┃ ┣render_convert_texture: min=0.001 ms, median=0.113 ms, max=0.259 ms, 99th percentile=0.211 ms
05:30:59 PM.328:  ┃ ┃ ┃ ┗stage_output_texture: min=0 ms, median=0.058 ms, max=0.136 ms, 99th percentile=0.076 ms
05:30:59 PM.328:  ┃ ┃ ┣download_frame: min=0 ms, median=0.012 ms, max=0.261 ms, 99th percentile=0.051 ms
05:30:59 PM.328:  ┃ ┃ ┗gs_flush: min=0.035 ms, median=0.283 ms, max=0.606 ms, 99th percentile=0.422 ms
05:30:59 PM.328:  ┃ ┗output_video_data: min=0.402 ms, median=0.506 ms, max=3.584 ms, 99th percentile=3.498 ms
05:30:59 PM.328:  ┗render_displays: min=0.316 ms, median=1.383 ms, max=6.648 ms, 99th percentile=3.339 ms
05:30:59 PM.328: video_thread(video): min=0.001 ms, median=0.002 ms, max=0.227 ms, 99th percentile=0.04 ms
05:30:59 PM.328: obs_graphics_thread(16.6667 ms): min=0.5 ms, median=1.313 ms, max=31.853 ms, 99th percentile=22.103 ms, 98.0198% below 16.667 ms
05:30:59 PM.328:  ┣tick_sources: min=0.003 ms, median=0.005 ms, max=0.133 ms, 99th percentile=0.045 ms
05:30:59 PM.328:  ┣output_frame: min=0.28 ms, median=0.479 ms, max=25.334 ms, 99th percentile=12.186 ms
05:30:59 PM.328:  ┃ ┣gs_context(video->graphics): min=0.201 ms, median=0.363 ms, max=25.094 ms, 99th percentile=11.082 ms
05:30:59 PM.328:  ┃ ┃ ┣render_video: min=0.15 ms, median=0.204 ms, max=10.92 ms, 99th percentile=2.562 ms
05:30:59 PM.328:  ┃ ┃ ┃ ┣render_main_texture: min=0.084 ms, median=0.111 ms, max=9.812 ms, 99th percentile=1.268 ms
05:30:59 PM.328:  ┃ ┃ ┃ ┣render_output_texture: min=0.006 ms, median=0.037 ms, max=0.602 ms, 99th percentile=0.526 ms
05:30:59 PM.328:  ┃ ┃ ┃ ┣render_convert_texture: min=0.003 ms, median=0.03 ms, max=0.959 ms, 99th percentile=0.443 ms
05:30:59 PM.328:  ┃ ┃ ┃ ┗stage_output_texture: min=0 ms, median=0.018 ms, max=3.744 ms, 99th percentile=0.255 ms
05:30:59 PM.328:  ┃ ┃ ┣download_frame: min=0 ms, median=0.003 ms, max=22.919 ms, 99th percentile=4.385 ms
05:30:59 PM.328:  ┃ ┃ ┗gs_flush: min=0.031 ms, median=0.147 ms, max=1.92 ms, 99th percentile=0.451 ms
05:30:59 PM.328:  ┃ ┗output_video_data: min=0 ms, median=0.104 ms, max=13.766 ms, 99th percentile=3.322 ms
05:30:59 PM.328:  ┗render_displays: min=0.188 ms, median=0.843 ms, max=17.089 ms, 99th percentile=10.969 ms
05:30:59 PM.328: video_thread(video): min=0 ms, median=0.968 ms, max=109.068 ms, 99th percentile=58.581 ms
05:30:59 PM.328:  ┗receive_video: min=0.373 ms, median=0.99 ms, max=109.064 ms, 99th percentile=58.575 ms
05:30:59 PM.328:    ┗do_encode: min=0.372 ms, median=0.989 ms, max=109.062 ms, 99th percentile=58.572 ms
05:30:59 PM.328:      ┗encode(test_x264): min=0.365 ms, median=0.973 ms, max=109.013 ms, 99th percentile=58.564 ms
05:30:59 PM.328: obs_graphics_thread(33.3333 ms): min=0.366 ms, median=3.318 ms, max=14.618 ms, 99th percentile=7.355 ms, 100% below 33.333 ms
05:30:59 PM.328:  ┣tick_sources: min=0.004 ms, median=0.017 ms, max=0.529 ms, 99th percentile=0.126 ms
05:30:59 PM.328:  ┣output_frame: min=0.115 ms, median=1.715 ms, max=4.034 ms, 99th percentile=3.832 ms
05:30:59 PM.328:  ┃ ┣gs_context(video->graphics): min=0.115 ms, median=1.087 ms, max=2.814 ms, 99th percentile=2.249 ms
05:30:59 PM.328:  ┃ ┃ ┣render_video: min=0.066 ms, median=0.704 ms, max=2.046 ms, 99th percentile=1.77 ms
05:30:59 PM.328:  ┃ ┃ ┃ ┣render_main_texture: min=0.037 ms, median=0.138 ms, max=0.987 ms, 99th percentile=0.512 ms
05:30:59 PM.328:  ┃ ┃ ┃ ┣render_output_texture: min=0.002 ms, median=0.284 ms, max=1.61 ms, 99th percentile=0.986 ms
05:30:59 PM.328:  ┃ ┃ ┃ ┣render_convert_texture: min=0.001 ms, median=0.174 ms, max=0.681 ms, 99th percentile=0.485 ms
05:30:59 PM.328:  ┃ ┃ ┃ ┗stage_output_texture: min=0 ms, median=0.076 ms, max=0.909 ms, 99th percentile=0.213 ms
05:30:59 PM.329:  ┃ ┃ ┣download_frame: min=0 ms, median=0.016 ms, max=0.142 ms, 99th percentile=0.059 ms
05:30:59 PM.329:  ┃ ┃ ┗gs_flush: min=0.035 ms, median=0.247 ms, max=1.198 ms, 99th percentile=0.622 ms
05:30:59 PM.329:  ┃ ┗output_video_data: min=0.165 ms, median=0.581 ms, max=2.38 ms, 99th percentile=1.934 ms
05:30:59 PM.329:  ┗render_displays: min=0.18 ms, median=1.466 ms, max=12.123 ms, 99th percentile=5.658 ms
05:30:59 PM.329: video_thread(video): min=0 ms, median=0.002 ms, max=0.095 ms, 99th percentile=0.042 ms
05:30:59 PM.329: obs_graphics_thread(16.6667 ms): min=0.505 ms, median=17.22 ms, max=133.101 ms, 99th percentile=29.281 ms, 38.8388% below 16.667 ms
05:30:59 PM.329:  ┣tick_sources: min=0.004 ms, median=13.872 ms, max=128.71 ms, 99th percentile=21.502 ms
05:30:59 PM.329:  ┣output_frame: min=0.264 ms, median=1.35 ms, max=55.223 ms, 99th percentile=3.77 ms
05:30:59 PM.329:  ┃ ┣gs_context(video->graphics): min=0.202 ms, median=0.99 ms, max=55.071 ms, 99th percentile=2.967 ms
05:30:59 PM.329:  ┃ ┃ ┣render_video: min=0.147 ms, median=0.779 ms, max=11.537 ms, 99th percentile=2.665 ms
05:30:59 PM.329:  ┃ ┃ ┃ ┣render_main_texture: min=0.036 ms, median=0.432 ms, max=11.388 ms, 99th percentile=2.235 ms
05:30:59 PM.329:  ┃ ┃ ┃ ┣render_output_texture: min=0.005 ms, median=0.108 ms, max=1.672 ms, 99th percentile=0.447 ms
05:30:59 PM.329:  ┃ ┃ ┃ ┣render_convert_texture: min=0.003 ms, median=0.096 ms, max=1.901 ms, 99th percentile=0.374 ms
05:30:59 PM.329:  ┃ ┃ ┃ ┗stage_output_texture: min=0 ms, median=0.045 ms, max=0.771 ms, 99th percentile=0.155 ms
05:30:59 PM.329:  ┃ ┃ ┣download_frame: min=0 ms, median=0.01 ms, max=0.832 ms, 99th percentile=0.048 ms
05:30:59 PM.329:  ┃ ┃ ┗gs_flush: min=0.03 ms, median=0.119 ms, max=3.794 ms, 99th percentile=0.373 ms
05:30:59 PM.329:  ┃ ┗output_video_data: min=0.062 ms, median=0.301 ms, max=4.398 ms, 99th percentile=0.881 ms
05:30:59 PM.329:  ┗render_displays: min=0.22 ms, median=1.359 ms, max=54.408 ms, 99th percentile=10.712 ms
05:30:59 PM.329: video_thread(video): min=0 ms, median=0.001 ms, max=1.653 ms, 99th percentile=0.034 ms
05:30:59 PM.329: OBSBasic::ResetOutputs: 0.128 ms
05:30:59 PM.329: OBSBasic::ResetVideo: 44.037 ms
05:30:59 PM.329: obs_graphics_thread(16.6667 ms): min=2.895 ms, median=18.348 ms, max=137.623 ms, 99th percentile=41.233 ms, 39.3318% below 16.667 ms
05:30:59 PM.329:  ┣tick_sources: min=0.002 ms, median=13.867 ms, max=119.817 ms, 99th percentile=30.75 ms
05:30:59 PM.329:  ┣output_frame: min=0.332 ms, median=1.827 ms, max=24.869 ms, 99th percentile=8.853 ms
05:30:59 PM.329:  ┃ ┣gs_context(video->graphics): min=0.331 ms, median=1.521 ms, max=24.865 ms, 99th percentile=8.567 ms
05:30:59 PM.329:  ┃ ┃ ┣render_video: min=0.25 ms, median=1.266 ms, max=24.384 ms, 99th percentile=7.537 ms
05:30:59 PM.329:  ┃ ┃ ┃ ┣render_main_texture: min=0.047 ms, median=0.91 ms, max=24.122 ms, 99th percentile=6.705 ms
05:30:59 PM.329:  ┃ ┃ ┃ ┣render_output_texture: min=0.002 ms, median=0.096 ms, max=11.908 ms, 99th percentile=0.9 ms
05:30:59 PM.329:  ┃ ┃ ┃ ┣render_convert_texture: min=0.001 ms, median=0.106 ms, max=14.975 ms, 99th percentile=1.136 ms
05:30:59 PM.329:  ┃ ┃ ┃ ┗stage_output_texture: min=0 ms, median=0.045 ms, max=7.318 ms, 99th percentile=0.306 ms
05:30:59 PM.329:  ┃ ┃ ┣download_frame: min=0 ms, median=0.009 ms, max=4.561 ms, 99th percentile=0.062 ms
05:30:59 PM.329:  ┃ ┃ ┗gs_flush: min=0.046 ms, median=0.123 ms, max=16.2 ms, 99th percentile=1.96 ms
05:30:59 PM.329:  ┃ ┗output_video_data: min=0 ms, median=0.001 ms, max=12.215 ms, 99th percentile=2.758 ms
05:30:59 PM.329:  ┗render_displays: min=0.048 ms, median=1.534 ms, max=75.521 ms, 99th percentile=13.377 ms
05:30:59 PM.329: video_thread(video): min=0 ms, median=0.001 ms, max=9487.32 ms, 99th percentile=3037.02 ms
05:30:59 PM.329:  ┗receive_video: min=0.001 ms, median=12.801 ms, max=214.071 ms, 99th percentile=106.28 ms, 4.69829 calls per parent call
05:30:59 PM.329:    ┗do_encode: min=1.652 ms, median=12.816 ms, max=214.068 ms, 99th percentile=106.278 ms
05:30:59 PM.329:      ┗encode(simple_h264_stream): min=1.646 ms, median=12.511 ms, max=213.766 ms, 99th percentile=105.556 ms
05:30:59 PM.329: =================================================
05:30:59 PM.329: == Profiler Time Between Calls ==================
05:30:59 PM.329: obs_hotkey_thread(25 ms): min=25.127 ms, median=26.261 ms, max=124.123 ms, 17.8137% within ±2% of 25 ms (0% lower, 82.1863% higher)
05:30:59 PM.329: obs_graphics_thread(33.3333 ms): min=31.753 ms, median=33.333 ms, max=34.91 ms, 99.8318% within ±2% of 33.333 ms (0.0841043% lower, 0.0841043% higher)
05:30:59 PM.329: obs_graphics_thread(16.6667 ms): min=6.418 ms, median=16.667 ms, max=27.749 ms, 93.4579% within ±2% of 16.667 ms (3.27103% lower, 3.27103% higher)
05:30:59 PM.329: obs_graphics_thread(33.3333 ms): min=33.066 ms, median=33.333 ms, max=33.603 ms, 100% within ±2% of 33.333 ms (0% lower, 0% higher)
05:30:59 PM.329: obs_graphics_thread(16.6667 ms): min=14.441 ms, median=16.667 ms, max=18.907 ms, 98% within ±2% of 16.667 ms (1% lower, 1% higher)
05:30:59 PM.329: obs_graphics_thread(33.3333 ms): min=33.154 ms, median=33.331 ms, max=33.524 ms, 100% within ±2% of 33.333 ms (0% lower, 0% higher)
05:30:59 PM.329: obs_graphics_thread(16.6667 ms): min=3.171 ms, median=16.665 ms, max=31.891 ms, 93.3775% within ±2% of 16.667 ms (3.31126% lower, 3.31126% higher)
05:30:59 PM.329: obs_graphics_thread(33.3333 ms): min=30.531 ms, median=33.333 ms, max=36.13 ms, 98.2533% within ±2% of 33.333 ms (0.873362% lower, 0.873362% higher)
05:30:59 PM.330: obs_graphics_thread(16.6667 ms): min=10.619 ms, median=17.259 ms, max=133.479 ms, 34.4583% within ±2% of 16.667 ms (10.0545% lower, 55.4872% higher)
05:30:59 PM.330: obs_graphics_thread(16.6667 ms): min=9.69 ms, median=18.51 ms, max=137.657 ms, 15.7885% within ±2% of 16.667 ms (23.1789% lower, 61.0325% higher)
05:30:59 PM.330: =================================================
05:30:59 PM.506: Number of memory leaks: 1
